# Created by Jmol 14.29.5  2018-02-08 17:49

newmtl kab5cf2
 Ns 163
 Tr 1
 Ni 0.001
 illum 2
 Ka 0.20 0.20 0.20
 Kd .672 .363 .949
 Ks 0.25 0.25 0.25

newmtl k909090
 Ns 163
 Tr 1
 Ni 0.001
 illum 2
 Ka 0.20 0.20 0.20
 Kd .566 .566 .566
 Ks 0.25 0.25 0.25

newmtl kffffff
 Ns 163
 Tr 1
 Ni 0.001
 illum 2
 Ka 0.20 0.20 0.20
 Kd 1 1 1
 Ks 0.25 0.25 0.25

newmtl kff0d0d
 Ns 163
 Tr 1
 Ni 0.001
 illum 2
 Ka 0.20 0.20 0.20
 Kd 1 .055 .055
 Ks 0.25 0.25 0.25

newmtl k3050f8
 Ns 163
 Tr 1
 Ni 0.001
 illum 2
 Ka 0.20 0.20 0.20
 Kd .191 .316 .973
 Ks 0.25 0.25 0.25

newmtl kffff30
 Ns 163
 Tr 1
 Ni 0.001
 illum 2
 Ka 0.20 0.20 0.20
 Kd 1 1 .191
 Ks 0.25 0.25 0.25
