%YAML 1.1
%TAG !u! tag:unity3d.com,2011:
--- !u!1045 &1
EditorBuildSettings:
  m_ObjectHideFlags: 0
  serializedVersion: 2
  m_Scenes:
  - enabled: 1
    path: Assets/Scenes/MainMenu.unity
    guid: 2df9afb4a0266824c8c75734c7ccd91e
  - enabled: 1
    path: Assets/Scenes/StudentPortal.unity
    guid: 9f2cdbb88b6134441acad587ae3df40e
  - enabled: 1
    path: Assets/Scenes/FreeInteraction.unity
    guid: fde0538ce35bac543bf126c65c30be03
  - enabled: 1
    path: Assets/Scenes/GuidedActivity.unity
    guid: ada4229f0d153d6458777a007c67c5e1
